<?xml version="1.0" encoding="UTF-8" standalone="no"?>
<!-- Created with Inkscape (http://www.inkscape.org/) -->
<svg id="svg2" xmlns:rdf="http://www.w3.org/1999/02/22-rdf-syntax-ns#" xmlns="http://www.w3.org/2000/svg" xmlns:osb="http://www.openswatchbook.org/uri/2009/osb" height="319mm" width="331mm" version="1.1" xmlns:cc="http://creativecommons.org/ns#" xmlns:xlink="http://www.w3.org/1999/xlink" viewBox="0 0 1172.8346 1130.315" xmlns:dc="http://purl.org/dc/elements/1.1/">
 <defs id="defs4">
  <linearGradient id="linearGradient5620" y2="482.82" gradientUnits="userSpaceOnUse" x2="1120.7" gradientTransform="matrix(1.21 0 0 1.21 -122.4 -73.147)" y1="482.82" x1="56.525">
   <stop id="stop5616" offset="0"/>
   <stop id="stop5618" stop-color="#33333f" stop-opacity=".94118" offset="1"/>
  </linearGradient>
 </defs>
 <metadata id="metadata7">
  <rdf:RDF>
   <cc:Work rdf:about="">
    <dc:format>image/svg+xml</dc:format>
    <dc:type rdf:resource="http://purl.org/dc/dcmitype/StillImage"/>
    <dc:title/>
   </cc:Work>
  </rdf:RDF>
 </metadata>
 <g id="layer1" transform="translate(0 77.953)">
  <path id="path3348" d="m510.26 107.75-273.12 245.46-127.91 449.43 490.91 207.46 456.36-183.26-159.04-487.46-221.26-224.71 190.18-148.75c-88.433-9.4796-177.32-14.756-266.25-15.804-96.89-1.1424-193.84 2.7337-290.33 11.607l200.46 146.03z" fill-rule="evenodd" stroke="#000" stroke-width="1.21px" fill="url(#linearGradient5620)"/>
  <path id="path4164" stroke-linejoin="round" d="m684.88 431.89c-6.34-58.38-23.22-115.59-49.58-168.06-29.85-59.42-71.88-112.69-122.72-155.55 22.722 2.9086 45.556 4.9435 68.435 6.0986 34.007 1.717 68.112 1.489 102.09-0.68242" stroke="#b47f58" stroke-linecap="round" stroke-width="12.1" fill="none"/>
 </g>
</svg>
